{
  "content": [
    {
      "id": "91",
      "value": 91,
      "details": ""
    },
    {
      "id": "92",
      "value": 92,
      "details": ""
    },
    {
      "id": "93",
      "value": 93,
      "details": ""
    },
    {
      "id": "94",
      "value": 94,
      "details": ""
    },
    {
      "id": "95",
      "value": 95,
      "details": ""
    }
  ],
  "size": 10,
  "totalElements": 95,
  "totalPages": 10,
  "number": 9
}
